Introduction to R Workshop
…
Using head is still quite messy if you have many columns. One trick to display data in a nicer way: use the tbl_df function. This will provide a neat preview of a large data frame that is adjusted to fit your screen:

data <- tbl_df(data)
data

## # A tibble: 35 x 13
##    tribe  superorder  order family species telecephalon medulla brain.mass
##    <fct>  <fct>       <fct> <fct>  <fct>          <dbl>   <dbl>      <dbl>
##  1 Batoi Batoidea    Raji Rajid Diptur        0.297   0.264      0.875
##  2 Sharks Galeomorpha Carc Carch Triaen        8.73    1.99      15.4  
##  3 Sharks Galeomorpha Carc Scyli Figaro        0.330   0.200      0.870
##  4 Sharks Galeomorpha Carc Carch Rhizop        1.57    0.866      3.65 
##  5 Chima Holocephali Chim Rhino Rhinoc        0.415   1.07       2.25 
##  6 Batoi Batoidea    Rhin Rhino Glauco        6.45    2.07      13.6  
##  7 Sharks Galeomorpha Orec Hemis Chilos        1.06    0.320      2.16 
##  8 Batoi Batoidea    Myli Urotr Urobat        1.23    0.529      2.70 
##  9 Sharks Galeomorpha Carc Carch Carcha       22.7     3.41      35.3  
## 10 Sharks Squalimorp Hexa Hexan Notory        1.78    1.84       5.70 
## # ... with 25 more rows, and 5 more variables: body.mass <dbl>,
## #   reproductive.mode <fct>, habitat <fct>, depth <dbl>, bodymasskg <dbl>
…
You can use the %in% function to filter based on finding values in a string or another database. Here I create a string of 5 randomly selected species and filter the database based on those 5 species:

fivespp <- data[sample(1:35,5), "species"]

data_5spp <- filter(data, species %in% fivespp) 

mutate will preform a transformation of your data and add a new column with the resulting values:

mutate(data, logbodymasskg = log(bodymasskg)) 

## # A tibble: 35 x 14
##    tribe  superorder  order family species telecephalon medulla brain.mass
##    <fct>  <fct>       <fct> <fct>  <fct>          <dbl>   <dbl>      <dbl>
##  1 Batoi Batoidea    Raji Rajid Diptur        0.297   0.264      0.875
##  2 Sharks Galeomorpha Carc Carch Triaen        8.73    1.99      15.4  
##  3 Sharks Galeomorpha Carc Scyli Figaro        0.330   0.200      0.870
##  4 Sharks Galeomorpha Carc Carch Rhizop        1.57    0.866      3.65 
##  5 Chima Holocephali Chim Rhino Rhinoc        0.415   1.07       2.25 
##  6 Batoi Batoidea    Rhin Rhino Glauco        6.45    2.07      13.6  
##  7 Sharks Galeomorpha Orec Hemis Chilos        1.06    0.320      2.16 
##  8 Batoi Batoidea    Myli Urotr Urobat        1.23    0.529      2.70 
##  9 Sharks Galeomorpha Carc Carch Carcha       22.7     3.41      35.3  
## 10 Sharks Squalimorp Hexa Hexan Notory        1.78    1.84       5.70 
## # ... with 25 more rows, and 6 more variables: body.mass <dbl>,
## #   reproductive.mode <fct>, habitat <fct>, depth <dbl>, bodymasskg <dbl>,
## #   logbodymasskg <dbl>
…
Now some more complex operations

Lets say we want to estimate the average brain mass as well as the standard deviation of the distribution and sample size for each family we can group by family and then summarize to obtain the desired metrics:

summarydata <- data %>%
  group_by(family) %>%
  summarise(mean = mean(brain.mass), 
            sd = sd(brain.mass),
            n = n())

summarydata

## # A tibble: 22 x 4
##    family          mean    sd     n
##    <fct>          <dbl> <dbl> <int>
##  1 Alopiidae      11.4  NA        1
##  2 Brachaeluridae  1.39 NA        1
##  3 Carcharhinidae 10.7  11.8      7
##  4 Centrophoridae  2.70 NA        1
##  5 Chimaeridae     7.24 NA        1
##  6 Dasyatidae     17.6  16.8      2
##  7 Hemiscyllidae   2.16 NA        1
##  8 Hexanchidae     5.70 NA        1
##  9 Lamnidae       25.6  NA        1
## 10 Myliobatidae    7.63  4.40     3
## # ... with 12 more rows
…
If we wanted to obtain relative brain mass as well as log body mass for everything except chimaeras we can do that with filter and mutate, and use select to only show the desired columns:

summarydata2 <- data %>%
  tbl_df %>%
  filter(tribe != "Chimaeras")  %>%
  mutate(rel.mass = brain.mass/body.mass,
         log.body.mass = log(body.mass)) %>%
  select(tribe, family, species,rel.mass, log.body.mass)

summarydata2

## # A tibble: 32 x 5
##    tribe   family             species               rel.mass log.body.mass
##    <fct>   <fct>              <fct>                    <dbl>         <dbl>
##  1 Batoids Rajidae            Dipturus_innominatus  0.000584          7.31
##  2 Sharks  Carcharhinidae     Triaenodon_obesus     0.000942          9.70
##  3 Sharks  Scyliorhinidae     Figaro_boardmani      0.00435           5.30
##  4 Sharks  Carcharhinidae     Rhizoprionodon_taylo 0.00256           7.26
##  5 Batoids Rhinobatidae       Glaucostegus_typus    0.00116           9.37
##  6 Sharks  Hemiscyllidae      Chiloscyllium_puncta 0.00309           6.55
##  7 Batoids Urotrygonidae      Urobatis_halleri      0.00855           5.76
##  8 Sharks  Carcharhinidae     Carcharhinus_amblyrh 0.00138          10.1 
##  9 Sharks  Hexanchidae        Notorynchus_cepedian 0.000257         10.0 
## 10 Sharks  Pseudocarchariidae Pseudocarcharias_kam 0.00123           8.27
## # ... with 22 more rows
…
